{
  "acceptedInvoices" : {
    "0x41ed684fd781b5f678731eeba889ffbf35296413da0c6614a863213e60dd810d" : {
      "bankPublicKey" : "150,112,233,49,103,135,251,117,126,162,72,116,145,27,16,36,55,182,167,71,33,126,252,77,136,69,134,148,252,248,102,70",
      "hash" : "0x41ed684fd781b5f678731eeba889ffbf35296413da0c6614a863213e60dd810d"
    },
    "0xb5d3f7e473af5bb9196742c5ff64e75f51bf4f2a6b4a12e01a8862e07033766e" : {
      "bankPublicKey" : "150,112,233,49,103,135,251,117,126,162,72,116,145,27,16,36,55,182,167,71,33,126,252,77,136,69,134,148,252,248,102,70",
      "hash" : "0xb5d3f7e473af5bb9196742c5ff64e75f51bf4f2a6b4a12e01a8862e07033766e"
    }
  },
  "constants" : {
    "ACMEAccount" : "ES000000000000000000",
    "ACMECommission" : "10",
    "ACMESCAddress" : "0x345ca3e014aaf5dca488057592ee47305d9b3e10",
    "CreditorID" : "String",
    "DebtorID" : "String",
    "DebtorSCAddress" : "String",
    "bankPublicKey" : "150,112,233,49,103,135,251,117,126,162,72,116,145,27,16,36,55,182,167,71,33,126,252,77,136,69,134,148,252,248,102,70"
  },
  "signedInvoices" : {
    "13123" : {
      "data" : [ 127, 237, 100, 41, 61, 251, 81, 146, 78, 143, 116, 179, 188, 249, 175, 215, 163, 205, 131, 57, 55, 117, 45, 239, 7, 222, 30, 236, 205, 162, 36, 53, 235, 150, 221, 28, 149, 10, 54, 221, 138, 96, 50, 246, 64, 45, 110, 202, 207, 75, 170, 66, 202, 29, 31, 244, 108, 180, 195, 117, 128, 76, 52, 15, 123, 34, 110, 105, 102, 34, 58, 34, 49, 50, 51, 49, 50, 51, 34, 44, 34, 105, 110, 118, 111, 105, 99, 101, 73, 68, 34, 58, 34, 49, 51, 49, 50, 51, 34, 44, 34, 97, 109, 111, 117, 110, 116, 34, 58, 56, 51, 44, 34, 97, 99, 109, 101, 67, 111, 109, 109, 105, 115, 115, 105, 111, 110, 34, 58, 34, 49, 48, 34, 44, 34, 97, 99, 109, 101, 65, 99, 99, 111, 117, 110, 116, 34, 58, 34, 69, 83, 48, 48, 48, 48, 48, 48, 48, 48, 48, 48, 48, 48, 48, 48, 48, 48, 48, 48, 34, 44, 34, 107, 75, 101, 121, 34, 58, 34, 102, 100, 101, 48, 99, 57, 98, 56, 101, 52, 98, 97, 52, 49, 53, 97, 54, 49, 48, 54, 101, 52, 56, 50, 53, 52, 57, 51, 49, 54, 102, 100, 101, 54, 98, 50, 55, 53, 56, 54, 53, 55, 97, 56, 97, 54, 98, 53, 102, 99, 99, 49, 97, 101, 49, 53, 53, 51, 49, 48, 57, 51, 49, 54, 34, 44, 34, 117, 115, 101, 114, 65, 99, 99, 111, 117, 110, 116, 34, 58, 34, 69, 83, 54, 54, 50, 49, 48, 48, 48, 52, 49, 56, 52, 48, 49, 50, 51, 52, 53, 54, 55, 56, 57, 49, 34, 44, 34, 99, 114, 101, 100, 105, 116, 111, 114, 65, 99, 99, 111, 117, 110, 116, 34, 58, 34, 69, 83, 48, 48, 48, 48, 48, 48, 48, 48, 51, 48, 48, 51, 52, 48, 48, 48, 48, 48, 34, 44, 34, 98, 97, 110, 107, 67, 111, 109, 109, 105, 115, 115, 105, 111, 110, 34, 58, 34, 55, 34, 125 ],
      "publicKey" : [ 246, 144, 42, 231, 103, 226, 239, 100, 37, 116, 32, 36, 148, 203, 40, 80, 178, 57, 130, 90, 136, 108, 194, 186, 212, 227, 38, 80, 3, 101, 86, 54 ]
    },
    "11111111" : {
      "data" : [ 242, 25, 30, 95, 188, 53, 160, 141, 197, 175, 85, 49, 231, 203, 215, 101, 121, 80, 158, 54, 223, 200, 152, 12, 215, 7, 65, 24, 249, 202, 35, 229, 129, 88, 0, 6, 69, 236, 167, 140, 169, 74, 213, 68, 103, 71, 211, 129, 6, 232, 119, 219, 37, 244, 1, 123, 135, 17, 97, 150, 171, 137, 86, 3, 123, 34, 110, 105, 102, 34, 58, 34, 52, 53, 52, 53, 55, 56, 55, 56, 69, 34, 44, 34, 105, 110, 118, 111, 105, 99, 101, 73, 68, 34, 58, 34, 49, 49, 49, 49, 49, 49, 49, 49, 34, 44, 34, 97, 109, 111, 117, 110, 116, 34, 58, 52, 54, 50, 46, 52, 56, 44, 34, 97, 99, 109, 101, 67, 111, 109, 109, 105, 115, 115, 105, 111, 110, 34, 58, 34, 49, 48, 34, 44, 34, 97, 99, 109, 101, 65, 99, 99, 111, 117, 110, 116, 34, 58, 34, 69, 83, 48, 48, 48, 48, 48, 48, 48, 48, 48, 48, 48, 48, 48, 48, 48, 48, 48, 48, 34, 44, 34, 107, 75, 101, 121, 34, 58, 34, 51, 100, 56, 53, 102, 100, 99, 54, 56, 52, 98, 97, 48, 55, 54, 53, 49, 56, 102, 51, 97, 57, 52, 55, 51, 54, 54, 51, 97, 57, 99, 100, 48, 50, 48, 102, 99, 51, 53, 55, 52, 56, 50, 52, 54, 57, 54, 51, 52, 97, 54, 55, 49, 49, 48, 54, 98, 53, 98, 99, 51, 54, 53, 51, 34, 44, 34, 117, 115, 101, 114, 65, 99, 99, 111, 117, 110, 116, 34, 58, 34, 69, 83, 56, 57, 50, 49, 55, 51, 57, 52, 49, 56, 52, 48, 49, 50, 51, 52, 53, 54, 52, 56, 57, 49, 34, 44, 34, 99, 114, 101, 100, 105, 116, 111, 114, 65, 99, 99, 111, 117, 110, 116, 34, 58, 34, 52, 34, 44, 34, 98, 97, 110, 107, 67, 111, 109, 109, 105, 115, 115, 105, 111, 110, 34, 58, 34, 56, 34, 125 ],
      "isSignedByBoth" : true,
      "publicKey" : [ 78, 100, 15, 151, 41, 123, 144, 13, 118, 89, 22, 188, 170, 30, 235, 105, 125, 234, 237, 106, 37, 226, 218, 115, 162, 2, 31, 94, 17, 117, 14, 165 ]
    }
  },
  "unsignedInvoices" : {
    "00000000" : {
      "KKey" : "d73902f86fa8110eba6832fb8d2f5aeb4e258b962468acbe42c44430df5300df",
      "SCAddress" : "0x345ca3e014aaf5dca488057592ee47305d9b3e10",
      "assigneeID" : "iPM2V1lXCBOxS74XBa21h0ED4Vc2",
      "data" : {
        "NIF" : "00000000A",
        "RKey" : "6f11c98b164e68b2eb53b5c04ec058d9d078db6b3c5f42a82c8d30ac5c1d50c0",
        "amount" : "1231",
        "emissionDate" : "3123-12-13",
        "expirationDate" : "0223-02-23",
        "invoiceID" : "00000000"
      },
      "debtorAuth" : true,
      "toCreditorAccount" : "ES2324244433444443324378",
      "toDebtorAccount" : "ES2324244433444443324378"
    },
    "6666666" : {
      "KKey" : "28cb1ea1989659d0fb667525378a4d27be502d57dc0e8a30421660fd19df778a",
      "SCAddress" : "0x345ca3e014aaf5dca488057592ee47305d9b3e10",
      "assigneeID" : "iPM2V1lXCBOxS74XBa21h0ED4Vc2",
      "data" : {
        "NIF" : "11111111A",
        "RKey" : "c33dc07dc14831f0f92d8480659260aa4dba86d7a2cb458115ccfcd88470bf90",
        "amount" : "120",
        "emissionDate" : "0123-03-12",
        "expirationDate" : "1233-03-12",
        "invoiceID" : "6666666"
      },
      "debtorAuth" : true,
      "toCreditorAccount" : "ES2324244433444443324378",
      "toDebtorAccount" : "ES2324244433444443324378"
    },
    "11111111" : {
      "KKey" : "3d85fdc684ba076518f3a9473663a9cd020fc357482469634a671106b5bc3653",
      "SCAddress" : "0x345ca3e014aaf5dca488057592ee47305d9b3e10",
      "assigneeID" : "iPM2V1lXCBOxS74XBa21h0ED4Vc2",
      "data" : {
        "NIF" : "45457878E",
        "RKey" : "a0ed48f69978c41950f8e362eb06311ad16e846e4c5863e6dcfc79825f2b7c3f",
        "amount" : "564",
        "emissionDate" : "2019-01-02",
        "expirationDate" : "2019-01-31",
        "invoiceID" : "11111111"
      },
      "debtorAuth" : true,
      "toCreditorAccount" : "ES8921739418401234564891",
      "toDebtorAccount" : "ES6621000418401234567891"
    },
    "12345678" : {
      "KKey" : "c9de93c88fadd0d9c56c66f445078d586b20271a633f3734fc04089d4c2ee763",
      "SCAddress" : "0x345ca3e014aaf5dca488057592ee47305d9b3e10",
      "assigneeID" : "iPM2V1lXCBOxS74XBa21h0ED4Vc2",
      "data" : {
        "NIF" : "48139338Q",
        "RKey" : "d53055106b6ce92bd0725bab44055bcb804f42357cf1290cafb00eaf4eea528a",
        "amount" : "500",
        "emissionDate" : "2019-01-01",
        "expirationDate" : "2019-09-28",
        "invoiceID" : "12345678"
      },
      "debtorAuth" : true,
      "toCreditorAccount" : "ES2324244433444443324378",
      "toDebtorAccount" : "ES2324244433444443324378"
    },
    "33333333" : {
      "KKey" : "cfcf2926d2ef5c47bea9a109ca330f058f1d555e1388b27263dbbd743ed7dbbc",
      "SCAddress" : "0x345ca3e014aaf5dca488057592ee47305d9b3e10",
      "assigneeID" : "iPM2V1lXCBOxS74XBa21h0ED4Vc2",
      "data" : {
        "NIF" : "32467878A",
        "RKey" : "0730ae7ecdd4240e250dfafbb343d79f5b57f5b972361b99ab06b116f34d95a3",
        "amount" : "1054",
        "emissionDate" : "2018-12-05",
        "expirationDate" : "2019-04-26",
        "invoiceID" : "33333333"
      },
      "debtorAuth" : true,
      "toCreditorAccount" : "ES6843521641548913214798",
      "toDebtorAccount" : "ES6612109844165147456789"
    },
    "55555555" : {
      "KKey" : "a8f4e016b0267163f62be3d18569f2bcfe96e4c839562e490345fcb1707a7d58",
      "SCAddress" : "0x345ca3e014aaf5dca488057592ee47305d9b3e10",
      "assigneeID" : "iPM2V1lXCBOxS74XBa21h0ED4Vc2",
      "data" : {
        "NIF" : "52467878A",
        "RKey" : "84fd3611f50304a690b0968abb029389f30bea0200134dd11157374669e204a6",
        "amount" : "981",
        "emissionDate" : "2019-03-23",
        "expirationDate" : "2019-12-13",
        "invoiceID" : "55555555"
      },
      "debtorAuth" : false,
      "toCreditorAccount" : "ES6843651634548913214798",
      "toDebtorAccount" : "ES6612598844165147456789"
    },
    "222222222" : {
      "KKey" : "df7507402a00168519f919e1887866417da97165b21f8ab78bac1ee7db3dbdbe",
      "SCAddress" : "0x345ca3e014aaf5dca488057592ee47305d9b3e10",
      "assigneeID" : "4VpztPIjwKWGjEdxjLy6ec1St7h2",
      "data" : {
        "NIF" : "23452345A",
        "RKey" : "cbbb179a245d6d285b9e7b0836ff9870a5a7d637292728651c9115e8b2b863e6",
        "amount" : "2344",
        "emissionDate" : "2019-01-08",
        "expirationDate" : "2019-01-17",
        "invoiceID" : "222222222"
      },
      "debtorAuth" : true,
      "toCreditorAccount" : "ES1111111111111111111111",
      "toDebtorAccount" : "ES1111111111111111111111"
    },
    "444444444" : {
      "KKey" : "5b66aaad51109dc3ededb04bb50ca3222c03c31165fd7d86dba577d31ae4e2e7",
      "SCAddress" : "0x345ca3e014aaf5dca488057592ee47305d9b3e10",
      "assigneeID" : "iPM2V1lXCBOxS74XBa21h0ED4Vc2",
      "data" : {
        "NIF" : "52467878A",
        "RKey" : "cabf98f99aa07f7728a427cc0f3771a40b1308d6fb3ababcff7a036615471ca5",
        "amount" : "329",
        "emissionDate" : "2018-12-20",
        "expirationDate" : "2019-07-31",
        "invoiceID" : "444444444"
      },
      "debtorAuth" : true,
      "toCreditorAccount" : "ES6843521634548913214798",
      "toDebtorAccount" : "ES6612101844165147456789"
    }
  },
  "users" : {
    "4VpztPIjwKWGjEdxjLy6ec1St7h2" : {
      "email" : "creditor@creditor.com",
      "keys" : {
        "publicKey" : "150,112,233,49,103,135,251,117,126,162,72,116,145,27,16,36,55,182,167,71,33,126,252,77,136,69,134,148,252,248,102,70",
        "secretKey" : "41,170,180,91,185,160,173,180,58,31,85,210,246,138,23,165,11,166,113,31,181,112,133,200,142,152,181,231,43,211,172,187,150,112,233,49,103,135,251,117,126,162,72,116,145,27,16,36,55,182,167,71,33,126,252,77,136,69,134,148,252,248,102,70"
      },
      "roles" : {
        "acme" : false,
        "assignee" : false,
        "creditor" : true,
        "debtor" : false
      },
      "uid" : "4VpztPIjwKWGjEdxjLy6ec1St7h2"
    },
    "Ar7QQ3XRv3eCyZNMYJIL0rOpAuw1" : {
      "email" : "acme@acme.com",
      "roles" : {
        "acme" : true,
        "assignee" : false,
        "creditor" : false,
        "debtor" : false
      },
      "uid" : "Ar7QQ3XRv3eCyZNMYJIL0rOpAuw1"
    },
    "KtAshAcVVdb7Z4JluxhSUmMYhl33" : {
      "email" : "123123@123123.com",
      "roles" : {
        "acme" : false,
        "assignee" : true,
        "creditor" : false,
        "debtor" : false
      },
      "uid" : "KtAshAcVVdb7Z4JluxhSUmMYhl33"
    },
    "SYs6CJdOgXbNSwPXWIQV3osu3o33" : {
      "email" : "testkey@testkey.com",
      "keys" : {
        "publicKey" : "150,112,233,49,103,135,251,117,126,162,72,116,145,27,16,36,55,182,167,71,33,126,252,77,136,69,134,148,252,248,102,70",
        "secretKey" : "41,170,180,91,185,160,173,180,58,31,85,210,246,138,23,165,11,166,113,31,181,112,133,200,142,152,181,231,43,211,172,187,150,112,233,49,103,135,251,117,126,162,72,116,145,27,16,36,55,182,167,71,33,126,252,77,136,69,134,148,252,248,102,70"
      },
      "roles" : {
        "acme" : false,
        "assignee" : true,
        "creditor" : false,
        "debtor" : false
      },
      "uid" : "SYs6CJdOgXbNSwPXWIQV3osu3o33"
    },
    "hbaJ6ROZnhO5B77HifRjwBmBBKv2" : {
      "email" : "1234@hotmail.com",
      "keys" : {
        "publicKey" : "247,63,194,164,4,97,72,92,51,85,165,222,44,255,240,87,95,27,100,198,236,160,27,7,121,41,250,150,83,180,189,51",
        "secretKey" : "52,215,173,40,74,120,108,101,10,199,159,48,10,30,255,83,228,18,217,93,207,18,226,7,178,245,228,178,49,161,234,215,247,63,194,164,4,97,72,92,51,85,165,222,44,255,240,87,95,27,100,198,236,160,27,7,121,41,250,150,83,180,189,51"
      },
      "roles" : {
        "acme" : false,
        "assignee" : true,
        "creditor" : false,
        "debtor" : false
      },
      "uid" : "hbaJ6ROZnhO5B77HifRjwBmBBKv2"
    },
    "iPM2V1lXCBOxS74XBa21h0ED4Vc2" : {
      "email" : "assignee@assignee.com",
      "keys" : {
        "publicKey" : "220,121,214,113,180,151,44,244,96,143,141,17,223,109,3,229,84,29,74,198,86,180,184,98,116,87,237,19,46,246,253,64",
        "secretKey" : "189,15,245,126,36,45,80,244,221,177,53,39,46,169,89,212,176,56,129,166,203,118,145,249,106,120,242,238,182,27,240,217,220,121,214,113,180,151,44,244,96,143,141,17,223,109,3,229,84,29,74,198,86,180,184,98,116,87,237,19,46,246,253,64"
      },
      "roles" : {
        "acme" : false,
        "assignee" : true,
        "creditor" : false,
        "debtor" : false
      },
      "uid" : "iPM2V1lXCBOxS74XBa21h0ED4Vc2"
    },
    "test" : {
      "publicKey" : "12,32,200,207,27,128,192,55,227,162,39,59,58,72,188,20,9,76,147,162,229,86,9,168,203,110,11,226,159,182,47,53",
      "secretKey" : "108,75,93,189,226,185,192,124,245,213,20,192,33,58,52,252,146,241,83,249,147,207,29,118,11,170,101,145,201,237,45,168,12,32,200,207,27,128,192,55,227,162,39,59,58,72,188,20,9,76,147,162,229,86,9,168,203,110,11,226,159,182,47,53"
    },
    "uUmgm30PwKgzzzE7p5dV7yN0IUb2" : {
      "email" : "debtor@debtor.com",
      "roles" : {
        "acme" : false,
        "assignee" : false,
        "creditor" : false,
        "debtor" : true
      },
      "uid" : "uUmgm30PwKgzzzE7p5dV7yN0IUb2"
    },
    "xwcZ5Q74wwSY5GsdqE6a908GHLA3" : {
      "email" : "hola@123qwe.com",
      "roles" : {
        "acme" : false,
        "assignee" : true,
        "creditor" : false,
        "debtor" : false
      },
      "uid" : "xwcZ5Q74wwSY5GsdqE6a908GHLA3"
    }
  }
}
